{
    "KPlugin": {
        "Authors": [
            {
                "Email": "nikola@glavina.net",
                "Name": "Nikola Glavina"
            }
        ],
        "Category": "Multimedia",
        "Description": "Media Player Controls",
        "EnabledByDefault": false,
        "Icon": "applications-multimedia",
        "Id": "org.glavina.nikola.spotter",
        "License": "GPL-2.0+",
        "Name": "Spotter for Spotify",
        "ServiceTypes": [
            "Plasma/Applet"
        ],
        "Version": "1.0"
    },
    "X-Plasma-API": "declarativeappletscript",
    "X-Plasma-DBusActivationService": "org.mpris.MediaPlayer2.*",
    "X-Plasma-MainScript": "ui/main.qml",
    "X-Plasma-NotificationArea": "true",
    "X-Plasma-NotificationAreaCategory": "ApplicationStatus",
    "X-Plasma-StandAloneApp": true
}
